<svg xmlns="http://www.w3.org/2000/svg" xmlns:xlink="http://www.w3.org/1999/xlink" viewBox="1008.8 250.035 1048.2 865.091">
  <defs>
    <style>
      .cls-1 {
        fill: url(#linear-gradient);
      }

      .cls-2 {
        filter: url(#Subtraction_1);
      }
    </style>
    <linearGradient id="linear-gradient" x1="0.559" y1="0.82" x2="1.005" y2="-0.115" gradientUnits="objectBoundingBox">
      <stop offset="0" stop-color="#8faef6"/>
      <stop offset="0.502" stop-color="#a6cde7"/>
      <stop offset="1" stop-color="#cfcfff"/>
    </linearGradient>
    <filter id="Subtraction_1" x="1008.8" y="250.035" width="1048.2" height="865.091" filterUnits="userSpaceOnUse">
      <feOffset dx="-60" dy="3" input="SourceAlpha"/>
      <feGaussianBlur stdDeviation="44.5" result="blur"/>
      <feFlood flood-color="#9cacd6" flood-opacity="0.341"/>
      <feComposite operator="in" in2="blur"/>
      <feComposite in="SourceGraphic"/>
    </filter>
  </defs>
  <g class="cls-2" transform="matrix(1, 0, 0, 1, 0, 0)">
    <path id="Subtraction_1-2" data-name="Subtraction 1" class="cls-1" d="M718.2,236.627h0c-30.653-5.817-65.464-10.775-103.466-14.734-37.216-3.879-78.28-6.88-122.05-8.922-48.141-2.245-100.747-3.384-156.357-3.384-17.834,0-35.306-.649-51.931-1.928-16.254-1.249-32.163-3.137-47.285-5.611-14.765-2.416-29.183-5.456-42.852-9.036a398.98,398.98,0,0,1-38.633-12.2A349.4,349.4,0,0,1,121,165.7,316.434,316.434,0,0,1,90.166,147.94a297.456,297.456,0,0,1-27.256-20.149A291.13,291.13,0,0,1,39.018,105.51,295.207,295.207,0,0,1,19.285,82.659c-6-7.712-11.748-15.892-17.084-24.314C-2.959,50.2-7.877,41.6-12.415,32.788-16.8,24.279-20.946,15.336-24.745,6.209A426.631,426.631,0,0,1-43.28-49.135a542.993,542.993,0,0,1-11.576-56.791c-5.071-33.639-7.719-69.907-8.1-110.876-.323-35.174,1.057-67.225,2.274-95.5v-.024l0-.04v-.008c.774-17.98,1.443-33.507,1.523-46.624H717.7v-2.464h.5v598.09Z" transform="translate(1265.3 742)"/>
  </g>
</svg>
